{
	"OrderReferenceId": "27bb7cf8-fcd6-4224-b143-c45c5773a5ea",
	"Valid": true,
	"ItemType": "SearchSummary",
	"VehicleCount": 2,
	"Vehicles": [
		{
			"Borrower Name": "",
			"VIN": "SHEEBATESTVIN2",
			"VLPREF": 135497,
			"Bill-Code": "sdf",
			"Title State": "TX",
			"Type": "ELT Title Storage",
			"Title Status": "Pending Title Notification"
		},
		{
			"Borrower Name": "",
			"VIN": "SHEEBATESTVINTM",
			"VLPREF": 135496,
			"Bill-Code": "we",
			"Title State": "TX",
			"Type": "ELT Title Storage",
			"Title Status": "Pending Title Notification"
		}
	],
	"Confirmation": {
        "Message": "No records found for the specified search criteria"
    }
}